{
    "id": "iGssrGNyYCQBEK6gL8yC83",
    "name": "Newly Planned",
    "completed": true,
    "created_at": "2023-06-26 09.02",
    "start_time": "2023-06-26 09:58:38.810679",
    "end_time": "2023-06-26 09:58:50.646556",
    "vehicle_ids": []
}