{
    "id": "KTPcY9ZyhpGNhVWqcTW2Y4",
    "name": "piglet and astro02",
    "completed": true,
    "created_at": "2023-06-27 11.11",
    "start_time": "2023-06-27 11:12:05.355524",
    "end_time": "2023-06-27 11:13:00.937388",
    "vehicle_ids": [
        "14551",
        "14552"
    ]
}