{
    "id": "N2ocogvvRtknPhVcPJeihE",
    "name": "Bad Ragaz Astro only",
    "completed": false,
    "created_at": "2023-07-05 11.07",
    "start_time": null,
    "end_time": null,
    "vehicle_ids": [
        "14551"
    ]
}