{
    "id": "noWP4uDmkgPAh8ezASa9bQ",
    "name": "vghgfhghj",
    "completed": false,
    "created_at": "2023-06-28 11.05",
    "start_time": null,
    "end_time": null,
    "vehicle_ids": [
        "14551"
    ]
}